
41467062|210382|1
43809865|43809865|1
10355653|10355653|3
41479174|41479174|1
74839590|74839590|2
73479832|73479832|2
71434386|71434386|2
76403362|76403362|2
48492918|48492918|2
71246388|71246388|2
71036267|71036267|2
10128777|10128777|2
76159808|76159808|2
45798043|45798043|2
77211738|45798043|2
48205539|48205539|2
47580247|47580247|2
48427733|48427733|2
73752233|73752233|2
73257391|73257391|2
47566753|47566753|2
74847959|74847959|2
70853171|70853171|2
47990689|47990689|2
46294267|46294267|2
42153189|42153189|2
72050205|72050205|2
70027469|70027469|2
72852123|72852123|2
72397894|72397894|2
74200358|74200358|2
42234855|42234855|2
42960039|42960039|2
76455510|76455510|2
75608166|75608166|2
73875333|73875333|2
72843651|72843651|2
72643279|72643279|2
75207485|75207485|2
73992910|73992910|2
72704100|73992910|2
44548974|44548974|2
44825349|44825349|2