	3131	7791750007830		1	1	41479174	2018-12-26 20:44:25	08:44:25 p.m.	414791742045220.7055475PLM009	PLM009
	3131	7791750009438		1	1	41479174	2018-12-26 20:44:34	08:44:34 p.m.	414791742045220.7055475PLM009	PLM009
	3131	7799008580609		1	1	41479174	2018-12-26 20:44:45	08:44:45 p.m.	414791742045220.7055475PLM009	PLM009
