	4269	7799008999418		1	1	41479174	2018-12-28 15:08:03	3:08:03 PM	414791741517510.7055475HASR101	HASR101
	4269	7799008999418		1	1	41479174	2018-12-28 15:08:03	3:08:03 PM	414791741517510.7055475HASR101	HASR101
	4269	7799008999418		1	1	41479174	2018-12-28 15:08:04	3:08:04 PM	414791741517510.7055475HASR101	HASR101
	4269	7799008466521		1	1	41479174	2018-12-28 15:08:17	3:08:17 PM	414791741517510.7055475HASR101	HASR101
	4269	7799008466521		1	1	41479174	2018-12-28 15:08:18	3:08:18 PM	414791741517510.7055475HASR101	HASR101
	4269	7799008466521		1	1	41479174	2018-12-28 15:08:19	3:08:19 PM	414791741517510.7055475HASR101	HASR101
	4269	7799008999463		1	1	41479174	2018-12-28 15:08:25	3:08:25 PM	414791741517510.7055475HASR101	HASR101
	4269	7799008999463		1	1	41479174	2018-12-28 15:08:27	3:08:27 PM	414791741517510.7055475HASR101	HASR101
	4269	7799008792934		1	1	41479174	2018-12-28 15:08:57	3:08:57 PM	414791741517510.7055475HASR101	HASR101
	4269	7799008792934		1	1	41479174	2018-12-28 15:08:58	3:08:58 PM	414791741517510.7055475HASR101	HASR101
	4269	7799008792934		1	1	41479174	2018-12-28 15:08:59	3:08:59 PM	414791741517510.7055475HASR101	HASR101
	4269	7799008792934		1	1	41479174	2018-12-28 15:09:00	3:09:00 PM	414791741517510.7055475HASR101	HASR101
	4269	7799008768267		1	1	41479174	2018-12-28 15:09:35	3:09:35 PM	414791741517510.7055475HASR101	HASR101
	4269	7799008768267		1	1	41479174	2018-12-28 15:09:37	3:09:37 PM	414791741517510.7055475HASR101	HASR101
	4269	7799008768267		1	1	41479174	2018-12-28 15:09:39	3:09:39 PM	414791741517510.7055475HASR101	HASR101
	4269	7799021055672		1	1	41479174	2018-12-28 15:09:47	3:09:47 PM	414791741517510.7055475HASR101	HASR101
	4269	7799021055672		1	1	41479174	2018-12-28 15:09:48	3:09:48 PM	414791741517510.7055475HASR101	HASR101
	4269	7799021069242		1	1	41479174	2018-12-28 15:10:30	3:10:30 PM	414791741517510.7055475HASR101	HASR101
	4269	7799021069242		1	1	41479174	2018-12-28 15:10:31	3:10:31 PM	414791741517510.7055475HASR101	HASR101
	4269	7799021089448		1	1	41479174	2018-12-28 15:10:41	3:10:41 PM	414791741517510.7055475HASR101	HASR101
	4269	7799021089448		1	1	41479174	2018-12-28 15:10:42	3:10:42 PM	414791741517510.7055475HASR101	HASR101
	4269	7793730543277		1	1	41479174	2018-12-28 15:10:52	3:10:52 PM	414791741517510.7055475HASR101	HASR101
	4269	7793730543277		1	1	41479174	2018-12-28 15:10:53	3:10:53 PM	414791741517510.7055475HASR101	HASR101
	4269	7799021069280		1	1	41479174	2018-12-28 15:11:03	3:11:03 PM	414791741517510.7055475HASR101	HASR101
	4269	7799021022834		1	1	41479174	2018-12-28 15:11:09	3:11:09 PM	414791741517510.7055475HASR101	HASR101
	4269	7799008889887		1	1	41479174	2018-12-28 15:11:14	3:11:14 PM	414791741517510.7055475HASR101	HASR101
	4269	7799008614083		1	1	41479174	2018-12-28 15:11:32	3:11:32 PM	414791741517510.7055475HASR101	HASR101
	4269	7799008614083		1	1	41479174	2018-12-28 15:11:34	3:11:34 PM	414791741517510.7055475HASR101	HASR101
	4269	7799008614083		1	1	41479174	2018-12-28 15:11:34	3:11:34 PM	414791741517510.7055475HASR101	HASR101
	4269	7799008614083		1	1	41479174	2018-12-28 15:11:38	3:11:38 PM	414791741517510.7055475HASR101	HASR101
	4269	7799008614083		1	1	41479174	2018-12-28 15:11:39	3:11:39 PM	414791741517510.7055475HASR101	HASR101
	4269	7799021069679		1	1	41479174	2018-12-28 15:11:53	3:11:53 PM	414791741517510.7055475HASR101	HASR101
	4269	7799021069679		1	1	41479174	2018-12-28 15:11:57	3:11:57 PM	414791741517510.7055475HASR101	HASR101
	4269	7799021069679		1	1	41479174	2018-12-28 15:11:59	3:11:59 PM	414791741517510.7055475HASR101	HASR101
	4269	7799021069143		1	1	41479174	2018-12-28 15:12:04	3:12:04 PM	414791741517510.7055475HASR101	HASR101
	4269	7791750399621		1	1	41479174	2018-12-28 15:12:07	3:12:07 PM	414791741517510.7055475HASR101	HASR101
	4269	7799021019513		1	1	41479174	2018-12-28 15:12:11	3:12:11 PM	414791741517510.7055475HASR101	HASR101
	4269	7799021047417		1	1	41479174	2018-12-28 15:12:13	3:12:13 PM	414791741517510.7055475HASR101	HASR101
	4269	7799008996264		1	1	41479174	2018-12-28 15:12:15	3:12:15 PM	414791741517510.7055475HASR101	HASR101
	4269	7799021068733		1	1	41479174	2018-12-28 15:12:22	3:12:22 PM	414791741517510.7055475HASR101	HASR101
	4269	7799008683775		1	1	41479174	2018-12-28 15:12:47	3:12:47 PM	414791741517510.7055475HASR101	HASR101
	4269	7799008979212		1	1	41479174	2018-12-28 15:12:52	3:12:52 PM	414791741517510.7055475HASR101	HASR101
	4269	7799008942469		1	1	41479174	2018-12-28 15:13:01	3:13:01 PM	414791741517510.7055475HASR101	HASR101
	4269	7799008942469		1	1	41479174	2018-12-28 15:13:02	3:13:02 PM	414791741517510.7055475HASR101	HASR101
	4269	7799021076967		1	1	41479174	2018-12-28 15:13:10	3:13:10 PM	414791741517510.7055475HASR101	HASR101
	4269	7799008901152		1	1	41479174	2018-12-28 15:13:25	3:13:25 PM	414791741517510.7055475HASR101	HASR101
	4269	7799021025682		1	1	41479174	2018-12-28 15:13:45	3:13:45 PM	414791741517510.7055475HASR101	HASR101
	4269	7799021099539		1	1	41479174	2018-12-28 15:14:42	3:14:42 PM	414791741517510.7055475HASR101	HASR101
	4269	7799008659206		1	1	41479174	2018-12-28 15:15:00	3:15:00 PM	414791741517510.7055475HASR101	HASR101
	4269	7799008666617		1	1	41479174	2018-12-28 15:15:07	3:15:07 PM	414791741517510.7055475HASR101	HASR101
	4269	7799008649269		1	1	41479174	2018-12-28 15:15:41	3:15:41 PM	414791741517510.7055475HASR101	HASR101
	4269	7799008649269		1	1	41479174	2018-12-28 15:15:42	3:15:42 PM	414791741517510.7055475HASR101	HASR101
	4269	7799008649320		1	1	41479174	2018-12-28 15:16:01	3:16:01 PM	414791741517510.7055475HASR101	HASR101
	4269	7799008649320		1	1	41479174	2018-12-28 15:16:01	3:16:01 PM	414791741517510.7055475HASR101	HASR101
	4269	7799008649320		1	1	41479174	2018-12-28 15:16:02	3:16:02 PM	414791741517510.7055475HASR101	HASR101
	4269	7799008649320		1	1	41479174	2018-12-28 15:16:03	3:16:03 PM	414791741517510.7055475HASR101	HASR101
	4269	7799008649320		1	1	41479174	2018-12-28 15:16:03	3:16:03 PM	414791741517510.7055475HASR101	HASR101
	4269	7799008649320		1	1	41479174	2018-12-28 15:16:04	3:16:04 PM	414791741517510.7055475HASR101	HASR101
	4269	7799008649320		1	1	41479174	2018-12-28 15:16:04	3:16:04 PM	414791741517510.7055475HASR101	HASR101
	4269	7799008649320		1	1	41479174	2018-12-28 15:16:04	3:16:04 PM	414791741517510.7055475HASR101	HASR101
	4269	7799008649320		1	1	41479174	2018-12-28 15:16:05	3:16:05 PM	414791741517510.7055475HASR101	HASR101
	4269	7799008649320		1	1	41479174	2018-12-28 15:16:05	3:16:05 PM	414791741517510.7055475HASR101	HASR101
	4269	7799008649320		1	1	41479174	2018-12-28 15:16:06	3:16:06 PM	414791741517510.7055475HASR101	HASR101
	4269	7799008649320		1	1	41479174	2018-12-28 15:16:06	3:16:06 PM	414791741517510.7055475HASR101	HASR101
	4269	7799008649320		1	1	41479174	2018-12-28 15:16:07	3:16:07 PM	414791741517510.7055475HASR101	HASR101
	4269	7799008649320		1	1	41479174	2018-12-28 15:16:07	3:16:07 PM	414791741517510.7055475HASR101	HASR101
	4269	7799008649320		1	1	41479174	2018-12-28 15:16:07	3:16:07 PM	414791741517510.7055475HASR101	HASR101
	4269	7799008649320		1	1	41479174	2018-12-28 15:16:08	3:16:08 PM	414791741517510.7055475HASR101	HASR101
	4269	7799008649320		1	1	41479174	2018-12-28 15:16:08	3:16:08 PM	414791741517510.7055475HASR101	HASR101
	4269	7799008649320		1	1	41479174	2018-12-28 15:16:09	3:16:09 PM	414791741517510.7055475HASR101	HASR101
	4269	7799008649320		1	1	41479174	2018-12-28 15:16:09	3:16:09 PM	414791741517510.7055475HASR101	HASR101
	4269	7799008649320		1	1	41479174	2018-12-28 15:16:10	3:16:10 PM	414791741517510.7055475HASR101	HASR101
	4269	7799008986111		1	1	41479174	2018-12-28 15:16:16	3:16:16 PM	414791741517510.7055475HASR101	HASR101
	4269	7799008986111		1	1	41479174	2018-12-28 15:16:17	3:16:17 PM	414791741517510.7055475HASR101	HASR101
	4269	7799021030471		1	1	41479174	2018-12-28 15:16:27	3:16:27 PM	414791741517510.7055475HASR101	HASR101
	4269	7799021030471		1	1	41479174	2018-12-28 15:16:28	3:16:28 PM	414791741517510.7055475HASR101	HASR101
	4269	7799021030471		1	1	41479174	2018-12-28 15:16:28	3:16:28 PM	414791741517510.7055475HASR101	HASR101
	4269	7799021030471		1	1	41479174	2018-12-28 15:16:29	3:16:29 PM	414791741517510.7055475HASR101	HASR101
	4269	7799008986050		1	1	41479174	2018-12-28 15:16:31	3:16:31 PM	414791741517510.7055475HASR101	HASR101
	4269	7799008986050		1	1	41479174	2018-12-28 15:16:32	3:16:32 PM	414791741517510.7055475HASR101	HASR101
	4269	7799008986050		1	1	41479174	2018-12-28 15:16:33	3:16:33 PM	414791741517510.7055475HASR101	HASR101
	4269	7799008649436		1	1	41479174	2018-12-28 15:16:47	3:16:47 PM	414791741517510.7055475HASR101	HASR101
