	4270	7799008901206		1	1	41479174	2018-12-28 15:16:11	03:16:11 p.m.	414791741523560.7607236PLM009	PLM009
	4270	7799008994055		1	1	41479174	2018-12-28 15:16:18	03:16:18 p.m.	414791741523560.7607236PLM009	PLM009
	4270	7799021076967		1	1	41479174	2018-12-28 15:22:48	03:22:48 p.m.	414791741523560.7607236PLM009	PLM009
	4270	7799021076967		1	1	41479174	2018-12-28 15:22:48	03:22:48 p.m.	414791741523560.7607236PLM009	PLM009
	4270	7799021076967		1	1	41479174	2018-12-28 15:22:49	03:22:49 p.m.	414791741523560.7607236PLM009	PLM009
	4270	7799021076967		1	1	41479174	2018-12-28 15:22:49	03:22:49 p.m.	414791741523560.7607236PLM009	PLM009
	4270	7799021076967		1	1	41479174	2018-12-28 15:22:50	03:22:50 p.m.	414791741523560.7607236PLM009	PLM009
	4270	7799021076967		1	1	41479174	2018-12-28 15:22:55	03:22:55 p.m.	414791741523560.7607236PLM009	PLM009
	4270	7799021076967		1	1	41479174	2018-12-28 15:22:56	03:22:56 p.m.	414791741523560.7607236PLM009	PLM009
	4270	7799021076967		1	1	41479174	2018-12-28 15:22:56	03:22:56 p.m.	414791741523560.7607236PLM009	PLM009
	4270	7799021076967		1	1	41479174	2018-12-28 15:22:57	03:22:57 p.m.	414791741523560.7607236PLM009	PLM009
	4270	7799021076967		1	1	41479174	2018-12-28 15:22:58	03:22:58 p.m.	414791741523560.7607236PLM009	PLM009
	4270	7799021076967		1	1	41479174	2018-12-28 15:22:58	03:22:58 p.m.	414791741523560.7607236PLM009	PLM009
	4270	7799021076967		1	1	41479174	2018-12-28 15:22:59	03:22:59 p.m.	414791741523560.7607236PLM009	PLM009
	4270	7799021076967		1	1	41479174	2018-12-28 15:22:59	03:22:59 p.m.	414791741523560.7607236PLM009	PLM009
